id;name;lastname;id_type;identification;birthdate;main_phone;sec_phone;email;observations;created_at;updated_at
2;Luis felipe;Sáez aparicio;2;1067916515;12/10/1992;3207944050;3145730610;pipesaez2@hotmail.com;;10/01/2018 14:05;10/01/2018 14:05
3;Victor Daniel;Negrete Baza;1;1067865824;19/12/2003;3045889142;3128934257;negretebazavictordaniel@gmail.com;;16/01/2018 19:52;16/01/2018 19:52
4;lorena;vergara;2;1102809038;09/03/1987;3042132480;0;loremaver@gmail.com;;25/01/2018 3:13;25/01/2018 3:13
5;Isabel;Bulasco ;1;103577865;07/02/2006;3017787102;7860657;Isabel020706@hotmail.com;;25/01/2018 16:30;25/01/2018 16:30
6;pedro luis;trujillo rios ;2;1233343079;28/09/1998;3116105143;347953927;wplay123@outlook.com;;29/01/2018 18:22;29/01/2018 18:22
8;Jhan Carlos;Viloria Murillo;2;1007781249;0000-00-00;3215012831;3215649925;jhanviloria45@gmail.com;;05/02/2018 16:52;05/02/2018 16:52
9;Jonathan;Dix Polo;1;1002998196;0000-00-00;7866062;0;jonathandix12@gmail.com;;08/02/2018 13:09;08/02/2018 13:09
11;juan sebastian ;ballen manosalva;2;1116807689;03/12/1997;3184677781;3165462227;sebastianballenm@hotmail.com;;16/02/2018 21:30;16/02/2018 21:30
12;Daniel de jesus;Holguin Ricardo;2;1063294830;10/09/1993;3122493144;3103753884;daniel.hr1@hotmail.com;;19/02/2018 22:57;19/02/2018 22:57
13;Marcela;Martinez Babilonia;2;1007339981;19/08/1995;3126010564;0;babiloniatheblackrose@gmail.com;;20/02/2018 16:37;20/02/2018 16:37
14;Luciano ;Ferreras;1;37369943;10/04/1994;5,42215E+11;0;lucianoferrerasmdh@gmail.com;;22/02/2018 6:55;22/02/2018 6:55
15;Isaid joseth;Martinez martinez;2;1102840883;16/07/1992;3216515130;0;isaidmarti7@hotmail.com;;25/02/2018 21:01;25/02/2018 21:01
16;Magnoria;Gomez Plata;2;37948782;08/10/1982;3145639249;0;margy-08@hotmail.com;;01/03/2018 16:32;01/03/2018 16:32
18;Moisés David;Guzmán Pretel;2;1067938918;26/02/1995;3013663186;3013663186;moisesdavid0010@gmail.com;;07/03/2018 2:26;07/03/2018 2:26
19;Yury Estela;Sanchez Calderon;2;1067916327;22/10/1992;3005985881;3008865408;tete.sanchez22@hotmail.com;;12/03/2018 13:02;12/03/2018 13:02
20;Julio Antonio;Peniche Maestre;2;1069490233;06/09/1992;3043394463;3135537781;julioantonio_06@hotmail.com;;14/03/2018 19:05;14/03/2018 19:05
21;Juan José;Ely Romero;2;1068587999;10/06/1995;3135537781;3043394463;jjelima@gmail.com;;14/03/2018 19:09;14/03/2018 19:09
22;CLAUDIA MARIA ;DICKSON ROMERO;2;1067867929;06/07/1988;3218925019;7894408;claudickr@hotmail.com;;14/03/2018 21:09;14/03/2018 21:09
23;CESAR;GONZALEZ;2;1002161904;30/07/1999;3003419824;0;cesar30992010@gmail.com;;21/03/2018 20:25;21/03/2018 20:25
24;Mariluz;Alavarez Correa;2;1063146540;21/03/1988;3205376551;3127909435;mariluzalvarezcorrea@hotmail.com;;27/03/2018 13:19;27/03/2018 13:19
25;Leandra;Medina;1;1003433895;07/09/2000;3106392296;0;leandramedina0707@gmail.com;;30/03/2018 12:44;30/03/2018 12:44
26;Mónica;Ramírez Ramírez;2;1041234851;05/03/1999;3147378428;3147378428;monimar1999@hotmail.com;;03/04/2018 17:40;03/04/2018 17:40
27;Roberto Jose;Saenz Avilez;2;11156367;06/09/1985;3135859575;0;ingrobertosaenz@gmail.com;;03/04/2018 18:06;03/04/2018 18:06
28;Victor Hugo;Gomez Hernanez;2;16070977;0000-00-00;3128432909;0;victorgomezmanizales@yahoo.com;;05/04/2018 14:16;05/04/2018 14:16
29;Kevin alexander;londoño asprilla;2;1020456429;23/11/1993;3045374799;3045374799;kevin6londono@hotmail.com;;05/04/2018 19:54;05/04/2018 19:54
30;Jesús Daniel;Narváez Mercado;1;1003069818;26/10/2002;3013275943;3023025593;dajename26@hotmail.com;;07/04/2018 15:22;07/04/2018 15:22
31;Santiago ;Nuñez ;1;1003432142;26/10/2001;3107417987;0;santiagonunez26@icloud.com;;19/04/2018 14:54;19/04/2018 14:54
32;LUIS FERNANDO;CABALLERO MORALES;2;1068819539;23/09/1994;3114000749;0;luis_caballero23@hotmail.es;;29/04/2018 14:25;29/04/2018 14:25
33;Julio cesar;Argumedo hoyos;2;1067958072;26/10/1998;3215360021;0;argumedojuliocesar53@gmail.com;;08/05/2018 11:58;08/05/2018 11:58
34;Vanessa;blanco;1;1000412991;09/08/2002;3103646569;0;Vanessacalderon34blanco@gmail.com;;14/05/2018 14:35;14/05/2018 14:35
35;Luis Fernando;Giraldo Diaz;2;1002998887;15/02/2000;3015800591;3126109060;yiraldfeer2014@gmail.com;;17/05/2018 13:48;17/05/2018 13:48
36;Juan Pablo;Vidal Atencio;2;1067958988;07/03/1998;3216824537;3135092269;juanpa_0703@hotmail.com;;24/05/2018 19:22;24/05/2018 19:22
37;Lina Marcela;Gutiérrez peña;2;1067943309;05/08/1995;3013481576;3013481576;leonigutierrez@outlook.com;;25/05/2018 13:55;25/05/2018 13:55
38;Maria Camila;Pareja;2;1015421818;08/12/1990;9154078378;0;mariacamilapareja@hotmail.com;;29/05/2018 16:56;29/05/2018 16:56
39;Navhys;Asias Martinez;2;1067935938;0000-00-00;3012393600;3185549267;navhysa@gmail.com;;05/06/2018 23:47;05/06/2018 23:47
40;María Gabriela ;Gómez Rodríguez;1;1137974627;14/02/2005;3127694210;3146609513;gomezfuentes444@hotmail.com;;14/06/2018 16:34;14/06/2018 16:34
41;Valentina;Salgado Castilla;2;1003393302;04/01/2000;3126953741;3126679011;vsalgadocastilla@hotmail.com;;15/06/2018 17:43;15/06/2018 17:43
42;Gricelis Patricia;Hoyos Perez;2;1003644181;25/10/1999;3233260036;3233260036;grisehoyos2599@gmail.com;;20/06/2018 22:43;20/06/2018 22:43
43;Elienais;Dugarte;4;22762671;28/06/2018;3004188974;3004188974;elidugarte78@gmail.com;;21/06/2018 2:26;21/06/2018 2:26
44;Christian ;Rodriguez Correa;2;1037485093;22/09/1997;3104387343;3215175092;crodriguez970@hotmail.com;;22/06/2018 17:37;22/06/2018 17:37
45;DIANA KARINA;HERNÁNDEZ URDA;2;1030595998;17/06/1991;3006099400;3006099400;dianak-17@hotmail.com;;24/06/2018 13:30;24/06/2018 13:30
47;Juan Esteban ;Muñoz figueroa;1;1043295249;30/09/2004;3006527803;3114045729;jfredymc80@live.com;;27/06/2018 15:05;27/06/2018 15:05
48;Angie Elisa;Gómez Peña;2;1233340124;09/09/1997;3226132852;0;angieg_lg@hotmail.com;;05/07/2018 12:41;05/07/2018 12:41
49;Juan Sebastián ;Valencia Serrato;2;1032433927;13/11/1989;3123636721;0;jsvalencias1989@gmail.com;;06/07/2018 15:55;06/07/2018 15:55
50;Faustina maria;Barroso Herrera;2;1067902666;03/05/1991;3008340837;3205497533;faustina.barroso@gmail.com;;07/07/2018 0:16;07/07/2018 0:16
51;Nathaly;Saker López ;1;1003423797;17/09/2002;3017400602;3225324762;nathaly.saker@gmail.com;;09/07/2018 17:37;09/07/2018 17:37
52;Alejandra ;Velez Peñate;1;1007822281;18/03/2002;3148749535;3148749535;alejandravelezp@gmail.com;;10/07/2018 19:28;10/07/2018 19:28
65;Eliana María;Santos Coavas;2;1065005969;06/08/1994;3226014200;3107007091;eliana19sant@hotmail.com;;21/07/2018 23:38;21/07/2018 23:38
66;FERNANDO;JIMENEZ PEÑATES;2;1047452984;29/01/1993;3015367207;0;FERNANDOJIMENEZQF@GMAIL.COM;;25/07/2018 19:31;25/07/2018 19:31
67;Angelica;Sotelo Montalvo;1;1003043926;26/10/2000;3126027267;7865032;Angelicasotelo520@gmail.com;;01/08/2018 16:21;01/08/2018 16:21
68;Maraiangel ;Zuleta Aleman;1;1062434848;0000-00-00;3022910602;3114731176;zaracaro21@gmail.com;;04/08/2018 15:29;04/08/2018 15:29
69;luisa fernanda ;fuentes argumedo;2;1003452749;23/03/2000;3158123926;3103503822;luisafuentesargumedo23@gmail.com;;04/08/2018 23:19;04/08/2018 23:19
70;Adriana ;Acuña carvajal;1;1063355437;29/07/2001;3106701015;3217757686;adrimaracucar@gmail.com;;05/08/2018 5:12;05/08/2018 5:12
71;EDWIN DAVID;GUTIERREZ ISIDRO;2;1067930575;29/06/1994;3135618372;3114767771;Edwingutierrez239@gmail.com;;06/08/2018 23:26;06/08/2018 23:26
72;Andres;Jiménez;1;80818313;08/09/1984;3017549852;0;adrz1@hotmail.com;;07/08/2018 13:39;07/08/2018 13:39
73;daicy nohemi ;baena escorcia ;1;1193078377;26/04/2001;3148950848;3226363904;danobaes260401@gmail.com;;08/08/2018 12:58;08/08/2018 12:58
74;Alexander;Quiñonez Tapia;2;1063280392;23/10/1987;3173048518;0;ALEXCA2589@HOTMAIL.COM;;12/08/2018 16:23;12/08/2018 16:23
75;tatiana andrea;fontalvo ramos;2;1067957658;04/01/1998;3007464064;3046580068;tatiana010498@gmail.com;;13/08/2018 14:13;13/08/2018 14:13
76;Emiro Javier;Castaño Velásquez;2;1071358005;13/06/1999;3116548381;3104098657;emirojcv1329@gmail.com;;14/08/2018 10:57;14/08/2018 10:57
77;Victor Alberto;Delgado Doria;2;1067966126;02/06/1999;3155036921;3145932694;victordelgado0602@hotmail.com;;25/08/2018 15:34;25/08/2018 15:34
78;Juan Guillermo ;Marín Córdoba;1;1000505816;02/04/2002;3053177081;0;juanguillermomarinco@gmail.com;;12/09/2018 4:11;12/09/2018 4:11
79;MARIA FERNANDA ;SUAREZ RAMOS;1;1063181742;02/02/1999;3045387055;0;fernandasuara@gmail.com;;15/09/2018 23:54;15/09/2018 23:54
80;Héctor javier;Colina cordero;4;25390351;24/11/1996;3219473899;0;hectorjavier96b@hotmail.com;;21/09/2018 3:02;21/09/2018 3:02
81;Sara Esther;Fajardo Marcano;4;25566777;01/01/1996;3147771425;3008898880;zarah2701@gmail.com;;22/09/2018 16:42;22/09/2018 16:42
82;Laura Marcela;Betancurt Rios;1;1003407632;0000-00-00;3023121183;0;lbetancurtrios@gmail.com;;26/09/2018 15:34;26/09/2018 15:34
83;Luis Alfonso ;Alzáte Madera ;2;1192780939;09/11/1999;3112380308;3147741349;alfonso.91199@gmail.com;;08/10/2018 4:38;08/10/2018 4:38
84;Yelkin;Arias Martinez;2;1049896659;14/03/1990;3004649118;3052918327;yelkinarias@gmail.com;Se contactó por ws y dijo q en el momento no tiene el presupuesto.;12/10/2018 17:17;12/10/2018 17:17
85;Marhiam (Acudiente: Ana Ortega Ramirez);Serpa Ortega;1;1067946970;20/02/2014;3205535082;3002029465;aniluna2318@gmail.com;;19/10/2018 22:32;19/10/2018 22:32
86;Emiro José;Osorio Osorio;1;1062428495;17/04/2005;3015703916;3002098016;emirosorio12@gmail.com;;20/10/2018 20:35;20/10/2018 20:35
87;Juan Jose;Osorio Osorio;1;1062435536;07/09/2007;3015703916;3002099967;emirosorio12@gmail.com;;20/10/2018 20:37;20/10/2018 20:37
88;Maria Paulina;Araujo Tirado;1;1234526677;23/09/2006;3126909252;3002666795;anyi0206@hotmail.com;;20/10/2018 21:10;20/10/2018 21:10
89;etfgc;www;1;123456789;0000-00-00;12345678;111;222@hot.com;;23/10/2018 0:08;23/10/2018 0:08
90;sindy paola ;monterrosa fernandez;2;1131072336;15/12/1993;3013143373;3136157348;sindymonterrosa1@hotmail.com;;26/10/2018 11:11;26/10/2018 11:11
91;Moises;Zabaleta;1;1044;17/01/2004;3107037820;3107037820;moisesgei117@gmail.com;;28/10/2018 0:30;28/10/2018 0:30
92;napoleon;zurita;2;1063367123;27/03/1998;3017096338;0;napoleonzurita12@gmail.com;;29/10/2018 18:55;29/10/2018 18:55
93;Ricky alexander;Gómez nieves;2;1042445298;17/03/1993;3023095894;3012990199;rickyalexander21@outlook.com;;12/11/2018 14:03;12/11/2018 14:03
94;Nicol;Mestra Garces;1;1038125504;29/06/2012;3004108730;3016535356;rafaelmc2@colanta.com.co;Canceló $65.000;15/11/2018 21:21;15/11/2018 21:21
95;Rafael Ramon;Mestra Caldera;2;11002613;11/06/1978;3004108730;3016535356;rafaelmc2@colanta.com.co;Pendiente $75.000;15/11/2018 21:23;15/11/2018 21:23
96;Yashuri;Paternina mercado;2;1067877846;08/03/1988;3104279624;3012481256;ypaternina22@hotmail.com;;21/11/2018 3:06;21/11/2018 3:06
